Chapter 13: Classification
…
Scene 3

Prompt: Its time to get some individual estimates from our model.

Use augment() from the broom package to get predictions from our model. You will need to set the type.predict and data arguments correctly.

What does the .fitted column means?

Why does .fitted have the same value for every male with income = 3? (First, show that this is in fact true. Then explain why?)

model_1 %>% 
  augment(type.predict = "response", data = nes) %>% 
  select(dvote, income, gender, .fitted)

## # A tibble: 6,653 x 4
##    dvote income gender .fitted
##    <int>  <int> <fct>    <dbl>
##  1     0      3 male     0.431
##  2     1      4 female   0.400
##  3     0      4 male     0.362
##  4     0      4 male     0.362
##  5     0      1 female   0.613
##  6     0      5 female   0.333
##  7     0      4 male     0.362
##  8     0      4 female   0.400
##  9     0      3 male     0.431
## 10     1      2 female   0.543
## #  with 6,643 more rows
…
